../../../datasets/VOCdevkit_train/VOC2006/PNGImages/000004.png
../../../datasets/VOCdevkit_train/VOC2006/PNGImages/000016.png
../../../datasets/VOCdevkit_train/VOC2006/PNGImages/000046.png
../../../datasets/VOCdevkit_train/VOC2006/PNGImages/000051.png
../../../datasets/VOCdevkit_train/VOC2006/PNGImages/000064.png
../../../datasets/VOCdevkit_train/VOC2006/PNGImages/000070.png
../../../datasets/VOCdevkit_train/VOC2006/PNGImages/000101.png
../../../datasets/VOCdevkit_train/VOC2006/PNGImages/000132.png
../../../datasets/VOCdevkit_train/VOC2006/PNGImages/000145.png
../../../datasets/VOCdevkit_train/VOC2006/PNGImages/000154.png
../../../datasets/VOCdevkit_train/VOC2006/PNGImages/000162.png
../../../datasets/VOCdevkit_train/VOC2006/PNGImages/000171.png
../../../datasets/VOCdevkit_train/VOC2006/PNGImages/000180.png
../../../datasets/VOCdevkit_train/VOC2006/PNGImages/000270.png
../../../datasets/VOCdevkit_train/VOC2006/PNGImages/000612.png
../../../datasets/VOCdevkit_train/VOC2006/PNGImages/000201.png
../../../datasets/VOCdevkit_train/VOC2006/PNGImages/000207.png
../../../datasets/VOCdevkit_train/VOC2006/PNGImages/000216.png
../../../datasets/VOCdevkit_train/VOC2006/PNGImages/000219.png
../../../datasets/VOCdevkit_train/VOC2006/PNGImages/000243.png
../../../datasets/VOCdevkit_train/VOC2006/PNGImages/000246.png
../../../datasets/VOCdevkit_train/VOC2006/PNGImages/000249.png
../../../datasets/VOCdevkit_train/VOC2006/PNGImages/000267.png
../../../datasets/VOCdevkit_train/VOC2006/PNGImages/000293.png
../../../datasets/VOCdevkit_train/VOC2006/PNGImages/000314.png
../../../datasets/VOCdevkit_train/VOC2006/PNGImages/000331.png
../../../datasets/VOCdevkit_train/VOC2006/PNGImages/000367.png
../../../datasets/VOCdevkit_train/VOC2006/PNGImages/000378.png
../../../datasets/VOCdevkit_train/VOC2006/PNGImages/000387.png
../../../datasets/VOCdevkit_train/VOC2006/PNGImages/000393.png
../../../datasets/VOCdevkit_train/VOC2006/PNGImages/000419.png
../../../datasets/VOCdevkit_train/VOC2006/PNGImages/000448.png
../../../datasets/VOCdevkit_train/VOC2006/PNGImages/000457.png
../../../datasets/VOCdevkit_train/VOC2006/PNGImages/000462.png
../../../datasets/VOCdevkit_train/VOC2006/PNGImages/000471.png
../../../datasets/VOCdevkit_train/VOC2006/PNGImages/000484.png
../../../datasets/VOCdevkit_train/VOC2006/PNGImages/000494.png
../../../datasets/VOCdevkit_train/VOC2006/PNGImages/000525.png
../../../datasets/VOCdevkit_train/VOC2006/PNGImages/000536.png
../../../datasets/VOCdevkit_train/VOC2006/PNGImages/000552.png
../../../datasets/VOCdevkit_train/VOC2006/PNGImages/000563.png
../../../datasets/VOCdevkit_train/VOC2006/PNGImages/000577.png
../../../datasets/VOCdevkit_train/VOC2006/PNGImages/000584.png
../../../datasets/VOCdevkit_train/VOC2006/PNGImages/000598.png
../../../datasets/VOCdevkit_train/VOC2006/PNGImages/000648.png
../../../datasets/VOCdevkit_train/VOC2006/PNGImages/000653.png
../../../datasets/VOCdevkit_train/VOC2006/PNGImages/000654.png
../../../datasets/VOCdevkit_train/VOC2006/PNGImages/000671.png
../../../datasets/VOCdevkit_train/VOC2006/PNGImages/000675.png
../../../datasets/VOCdevkit_train/VOC2006/PNGImages/000696.png
../../../datasets/VOCdevkit_train/VOC2006/PNGImages/000708.png
../../../datasets/VOCdevkit_train/VOC2006/PNGImages/000715.png
../../../datasets/VOCdevkit_train/VOC2006/PNGImages/000726.png
../../../datasets/VOCdevkit_train/VOC2006/PNGImages/000738.png
../../../datasets/VOCdevkit_train/VOC2006/PNGImages/000770.png
../../../datasets/VOCdevkit_train/VOC2006/PNGImages/000780.png
../../../datasets/VOCdevkit_train/VOC2006/PNGImages/000781.png
../../../datasets/VOCdevkit_train/VOC2006/PNGImages/000800.png
../../../datasets/VOCdevkit_train/VOC2006/PNGImages/000802.png
../../../datasets/VOCdevkit_train/VOC2006/PNGImages/000809.png
../../../datasets/VOCdevkit_train/VOC2006/PNGImages/000838.png
../../../datasets/VOCdevkit_train/VOC2006/PNGImages/000859.png
../../../datasets/VOCdevkit_train/VOC2006/PNGImages/000870.png
../../../datasets/VOCdevkit_train/VOC2006/PNGImages/000898.png
../../../datasets/VOCdevkit_train/VOC2006/PNGImages/000912.png
../../../datasets/VOCdevkit_train/VOC2006/PNGImages/000930.png
../../../datasets/VOCdevkit_train/VOC2006/PNGImages/000940.png
../../../datasets/VOCdevkit_train/VOC2006/PNGImages/000943.png
../../../datasets/VOCdevkit_train/VOC2006/PNGImages/000958.png
../../../datasets/VOCdevkit_train/VOC2006/PNGImages/000991.png
../../../datasets/VOCdevkit_train/VOC2006/PNGImages/001009.png
../../../datasets/VOCdevkit_train/VOC2006/PNGImages/001050.png
../../../datasets/VOCdevkit_train/VOC2006/PNGImages/001063.png
../../../datasets/VOCdevkit_train/VOC2006/PNGImages/001076.png
../../../datasets/VOCdevkit_train/VOC2006/PNGImages/001081.png
../../../datasets/VOCdevkit_train/VOC2006/PNGImages/001137.png
../../../datasets/VOCdevkit_train/VOC2006/PNGImages/001154.png
../../../datasets/VOCdevkit_train/VOC2006/PNGImages/001157.png
../../../datasets/VOCdevkit_train/VOC2006/PNGImages/001170.png
../../../datasets/VOCdevkit_train/VOC2006/PNGImages/001189.png
../../../datasets/VOCdevkit_train/VOC2006/PNGImages/001201.png
../../../datasets/VOCdevkit_train/VOC2006/PNGImages/001203.png
../../../datasets/VOCdevkit_train/VOC2006/PNGImages/001213.png
../../../datasets/VOCdevkit_train/VOC2006/PNGImages/001224.png
../../../datasets/VOCdevkit_train/VOC2006/PNGImages/001237.png
../../../datasets/VOCdevkit_train/VOC2006/PNGImages/001257.png
../../../datasets/VOCdevkit_train/VOC2006/PNGImages/001258.png
../../../datasets/VOCdevkit_train/VOC2006/PNGImages/001280.png
../../../datasets/VOCdevkit_train/VOC2006/PNGImages/001290.png
../../../datasets/VOCdevkit_train/VOC2006/PNGImages/001313.png
../../../datasets/VOCdevkit_train/VOC2006/PNGImages/001314.png
../../../datasets/VOCdevkit_train/VOC2006/PNGImages/001327.png
../../../datasets/VOCdevkit_train/VOC2006/PNGImages/001345.png
../../../datasets/VOCdevkit_train/VOC2006/PNGImages/001351.png
../../../datasets/VOCdevkit_train/VOC2006/PNGImages/001374.png
../../../datasets/VOCdevkit_train/VOC2006/PNGImages/001389.png
../../../datasets/VOCdevkit_train/VOC2006/PNGImages/001422.png
../../../datasets/VOCdevkit_train/VOC2006/PNGImages/001443.png
../../../datasets/VOCdevkit_train/VOC2006/PNGImages/001461.png
../../../datasets/VOCdevkit_train/VOC2006/PNGImages/001478.png
../../../datasets/VOCdevkit_train/VOC2006/PNGImages/001496.png
../../../datasets/VOCdevkit_train/VOC2006/PNGImages/001498.png
../../../datasets/VOCdevkit_train/VOC2006/PNGImages/001518.png
../../../datasets/VOCdevkit_train/VOC2006/PNGImages/000891.png
../../../datasets/VOCdevkit_train/VOC2006/PNGImages/001538.png
../../../datasets/VOCdevkit_train/VOC2006/PNGImages/001545.png
../../../datasets/VOCdevkit_train/VOC2006/PNGImages/001557.png
../../../datasets/VOCdevkit_train/VOC2006/PNGImages/001582.png
../../../datasets/VOCdevkit_train/VOC2006/PNGImages/001588.png
../../../datasets/VOCdevkit_train/VOC2006/PNGImages/001595.png
../../../datasets/VOCdevkit_train/VOC2006/PNGImages/001605.png
../../../datasets/VOCdevkit_train/VOC2006/PNGImages/001627.png
../../../datasets/VOCdevkit_train/VOC2006/PNGImages/001638.png
../../../datasets/VOCdevkit_train/VOC2006/PNGImages/001650.png
../../../datasets/VOCdevkit_train/VOC2006/PNGImages/001677.png
../../../datasets/VOCdevkit_train/VOC2006/PNGImages/001697.png
../../../datasets/VOCdevkit_train/VOC2006/PNGImages/001705.png
../../../datasets/VOCdevkit_train/VOC2006/PNGImages/001726.png
../../../datasets/VOCdevkit_train/VOC2006/PNGImages/001750.png
../../../datasets/VOCdevkit_train/VOC2006/PNGImages/001762.png
../../../datasets/VOCdevkit_train/VOC2006/PNGImages/001773.png
../../../datasets/VOCdevkit_train/VOC2006/PNGImages/001776.png
../../../datasets/VOCdevkit_train/VOC2006/PNGImages/001795.png
../../../datasets/VOCdevkit_train/VOC2006/PNGImages/001810.png
../../../datasets/VOCdevkit_train/VOC2006/PNGImages/001822.png
../../../datasets/VOCdevkit_train/VOC2006/PNGImages/001855.png
../../../datasets/VOCdevkit_train/VOC2006/PNGImages/001863.png
../../../datasets/VOCdevkit_train/VOC2006/PNGImages/001895.png
../../../datasets/VOCdevkit_train/VOC2006/PNGImages/001907.png
../../../datasets/VOCdevkit_train/VOC2006/PNGImages/001946.png
../../../datasets/VOCdevkit_train/VOC2006/PNGImages/001949.png
../../../datasets/VOCdevkit_train/VOC2006/PNGImages/001974.png
../../../datasets/VOCdevkit_train/VOC2006/PNGImages/001986.png
../../../datasets/VOCdevkit_train/VOC2006/PNGImages/001999.png
../../../datasets/VOCdevkit_train/VOC2006/PNGImages/002023.png
../../../datasets/VOCdevkit_train/VOC2006/PNGImages/002053.png
../../../datasets/VOCdevkit_train/VOC2006/PNGImages/002064.png
../../../datasets/VOCdevkit_train/VOC2006/PNGImages/002072.png
../../../datasets/VOCdevkit_train/VOC2006/PNGImages/002075.png
../../../datasets/VOCdevkit_train/VOC2006/PNGImages/002089.png
../../../datasets/VOCdevkit_train/VOC2006/PNGImages/002094.png
../../../datasets/VOCdevkit_train/VOC2006/PNGImages/002099.png
../../../datasets/VOCdevkit_train/VOC2006/PNGImages/002117.png
../../../datasets/VOCdevkit_train/VOC2006/PNGImages/002146.png
../../../datasets/VOCdevkit_train/VOC2006/PNGImages/002152.png
../../../datasets/VOCdevkit_train/VOC2006/PNGImages/002171.png
../../../datasets/VOCdevkit_train/VOC2006/PNGImages/002188.png
../../../datasets/VOCdevkit_train/VOC2006/PNGImages/002190.png
../../../datasets/VOCdevkit_train/VOC2006/PNGImages/002196.png
../../../datasets/VOCdevkit_train/VOC2006/PNGImages/002215.png
../../../datasets/VOCdevkit_train/VOC2006/PNGImages/002241.png
../../../datasets/VOCdevkit_train/VOC2006/PNGImages/002124.png
../../../datasets/VOCdevkit_train/VOC2006/PNGImages/002256.png
../../../datasets/VOCdevkit_train/VOC2006/PNGImages/002265.png
../../../datasets/VOCdevkit_train/VOC2006/PNGImages/002277.png
../../../datasets/VOCdevkit_train/VOC2006/PNGImages/002286.png
../../../datasets/VOCdevkit_train/VOC2006/PNGImages/002317.png
../../../datasets/VOCdevkit_train/VOC2006/PNGImages/002349.png
../../../datasets/VOCdevkit_train/VOC2006/PNGImages/002362.png
../../../datasets/VOCdevkit_train/VOC2006/PNGImages/002368.png
../../../datasets/VOCdevkit_train/VOC2006/PNGImages/002386.png
../../../datasets/VOCdevkit_train/VOC2006/PNGImages/002420.png
../../../datasets/VOCdevkit_train/VOC2006/PNGImages/002426.png
../../../datasets/VOCdevkit_train/VOC2006/PNGImages/002437.png
../../../datasets/VOCdevkit_train/VOC2006/PNGImages/002438.png
../../../datasets/VOCdevkit_train/VOC2006/PNGImages/002454.png
../../../datasets/VOCdevkit_train/VOC2006/PNGImages/002463.png
../../../datasets/VOCdevkit_train/VOC2006/PNGImages/002470.png
../../../datasets/VOCdevkit_train/VOC2006/PNGImages/002529.png
../../../datasets/VOCdevkit_train/VOC2006/PNGImages/002540.png
../../../datasets/VOCdevkit_train/VOC2006/PNGImages/002544.png
../../../datasets/VOCdevkit_train/VOC2006/PNGImages/002556.png
../../../datasets/VOCdevkit_train/VOC2006/PNGImages/002564.png
../../../datasets/VOCdevkit_train/VOC2006/PNGImages/002578.png
../../../datasets/VOCdevkit_train/VOC2006/PNGImages/002591.png
../../../datasets/VOCdevkit_train/VOC2006/PNGImages/002596.png
../../../datasets/VOCdevkit_train/VOC2006/PNGImages/002602.png
../../../datasets/VOCdevkit_train/VOC2006/PNGImages/002620.png
../../../datasets/VOCdevkit_train/VOC2006/PNGImages/002629.png
../../../datasets/VOCdevkit_train/VOC2006/PNGImages/002634.png
../../../datasets/VOCdevkit_train/VOC2006/PNGImages/002638.png
../../../datasets/VOCdevkit_train/VOC2006/PNGImages/002643.png
../../../datasets/VOCdevkit_train/VOC2006/PNGImages/002701.png
../../../datasets/VOCdevkit_train/VOC2006/PNGImages/002727.png
../../../datasets/VOCdevkit_train/VOC2006/PNGImages/002747.png
../../../datasets/VOCdevkit_train/VOC2006/PNGImages/002771.png
../../../datasets/VOCdevkit_train/VOC2006/PNGImages/002784.png
../../../datasets/VOCdevkit_train/VOC2006/PNGImages/002806.png
../../../datasets/VOCdevkit_train/VOC2006/PNGImages/002817.png
../../../datasets/VOCdevkit_train/VOC2006/PNGImages/002829.png
../../../datasets/VOCdevkit_train/VOC2006/PNGImages/002843.png
../../../datasets/VOCdevkit_train/VOC2006/PNGImages/002864.png
../../../datasets/VOCdevkit_train/VOC2006/PNGImages/002879.png
../../../datasets/VOCdevkit_train/VOC2006/PNGImages/002888.png
../../../datasets/VOCdevkit_train/VOC2006/PNGImages/002914.png
../../../datasets/VOCdevkit_train/VOC2006/PNGImages/002928.png
../../../datasets/VOCdevkit_train/VOC2006/PNGImages/002947.png
../../../datasets/VOCdevkit_train/VOC2006/PNGImages/002957.png
../../../datasets/VOCdevkit_train/VOC2006/PNGImages/002976.png
../../../datasets/VOCdevkit_train/VOC2006/PNGImages/002979.png
../../../datasets/VOCdevkit_train/VOC2006/PNGImages/002988.png
../../../datasets/VOCdevkit_train/VOC2006/PNGImages/002504.png
../../../datasets/VOCdevkit_train/VOC2006/PNGImages/002656.png
../../../datasets/VOCdevkit_train/VOC2006/PNGImages/002777.png
../../../datasets/VOCdevkit_train/VOC2006/PNGImages/002999.png
../../../datasets/VOCdevkit_train/VOC2006/PNGImages/003002.png
../../../datasets/VOCdevkit_train/VOC2006/PNGImages/003023.png
../../../datasets/VOCdevkit_train/VOC2006/PNGImages/003026.png
../../../datasets/VOCdevkit_train/VOC2006/PNGImages/003047.png
../../../datasets/VOCdevkit_train/VOC2006/PNGImages/003056.png
../../../datasets/VOCdevkit_train/VOC2006/PNGImages/003087.png
../../../datasets/VOCdevkit_train/VOC2006/PNGImages/003096.png
../../../datasets/VOCdevkit_train/VOC2006/PNGImages/003102.png
../../../datasets/VOCdevkit_train/VOC2006/PNGImages/003115.png
../../../datasets/VOCdevkit_train/VOC2006/PNGImages/003133.png
../../../datasets/VOCdevkit_train/VOC2006/PNGImages/003152.png
../../../datasets/VOCdevkit_train/VOC2006/PNGImages/003160.png
../../../datasets/VOCdevkit_train/VOC2006/PNGImages/003178.png
../../../datasets/VOCdevkit_train/VOC2006/PNGImages/003198.png
../../../datasets/VOCdevkit_train/VOC2006/PNGImages/003208.png
../../../datasets/VOCdevkit_train/VOC2006/PNGImages/003214.png
../../../datasets/VOCdevkit_train/VOC2006/PNGImages/003229.png
../../../datasets/VOCdevkit_train/VOC2006/PNGImages/003239.png
../../../datasets/VOCdevkit_train/VOC2006/PNGImages/003261.png
../../../datasets/VOCdevkit_train/VOC2006/PNGImages/003278.png
../../../datasets/VOCdevkit_train/VOC2006/PNGImages/003284.png
../../../datasets/VOCdevkit_train/VOC2006/PNGImages/003289.png
../../../datasets/VOCdevkit_train/VOC2006/PNGImages/003320.png
../../../datasets/VOCdevkit_train/VOC2006/PNGImages/003335.png
../../../datasets/VOCdevkit_train/VOC2006/PNGImages/003345.png
../../../datasets/VOCdevkit_train/VOC2006/PNGImages/003352.png
../../../datasets/VOCdevkit_train/VOC2006/PNGImages/003386.png
../../../datasets/VOCdevkit_train/VOC2006/PNGImages/003398.png
../../../datasets/VOCdevkit_train/VOC2006/PNGImages/003401.png
../../../datasets/VOCdevkit_train/VOC2006/PNGImages/003411.png
../../../datasets/VOCdevkit_train/VOC2006/PNGImages/003415.png
../../../datasets/VOCdevkit_train/VOC2006/PNGImages/003441.png
../../../datasets/VOCdevkit_train/VOC2006/PNGImages/003445.png
../../../datasets/VOCdevkit_train/VOC2006/PNGImages/003462.png
../../../datasets/VOCdevkit_train/VOC2006/PNGImages/003475.png
../../../datasets/VOCdevkit_train/VOC2006/PNGImages/003482.png
../../../datasets/VOCdevkit_train/VOC2006/PNGImages/003488.png
../../../datasets/VOCdevkit_train/VOC2006/PNGImages/003497.png
../../../datasets/VOCdevkit_train/VOC2006/PNGImages/003506.png
../../../datasets/VOCdevkit_train/VOC2006/PNGImages/003530.png
../../../datasets/VOCdevkit_train/VOC2006/PNGImages/003548.png
../../../datasets/VOCdevkit_train/VOC2006/PNGImages/003552.png
../../../datasets/VOCdevkit_train/VOC2006/PNGImages/003555.png
../../../datasets/VOCdevkit_train/VOC2006/PNGImages/003564.png
../../../datasets/VOCdevkit_train/VOC2006/PNGImages/003573.png
../../../datasets/VOCdevkit_train/VOC2006/PNGImages/003588.png
../../../datasets/VOCdevkit_train/VOC2006/PNGImages/003592.png
../../../datasets/VOCdevkit_train/VOC2006/PNGImages/003595.png
../../../datasets/VOCdevkit_train/VOC2006/PNGImages/003612.png
../../../datasets/VOCdevkit_train/VOC2006/PNGImages/003615.png
../../../datasets/VOCdevkit_train/VOC2006/PNGImages/003618.png
../../../datasets/VOCdevkit_train/VOC2006/PNGImages/003622.png
../../../datasets/VOCdevkit_train/VOC2006/PNGImages/003629.png
../../../datasets/VOCdevkit_train/VOC2006/PNGImages/003639.png
../../../datasets/VOCdevkit_train/VOC2006/PNGImages/003661.png
../../../datasets/VOCdevkit_train/VOC2006/PNGImages/003677.png
../../../datasets/VOCdevkit_train/VOC2006/PNGImages/003682.png
../../../datasets/VOCdevkit_train/VOC2006/PNGImages/003690.png
../../../datasets/VOCdevkit_train/VOC2006/PNGImages/003706.png
../../../datasets/VOCdevkit_train/VOC2006/PNGImages/003067.png
../../../datasets/VOCdevkit_train/VOC2006/PNGImages/003311.png
../../../datasets/VOCdevkit_train/VOC2006/PNGImages/003734.png
../../../datasets/VOCdevkit_train/VOC2006/PNGImages/003740.png
../../../datasets/VOCdevkit_train/VOC2006/PNGImages/003741.png
../../../datasets/VOCdevkit_train/VOC2006/PNGImages/003773.png
../../../datasets/VOCdevkit_train/VOC2006/PNGImages/003801.png
../../../datasets/VOCdevkit_train/VOC2006/PNGImages/003822.png
../../../datasets/VOCdevkit_train/VOC2006/PNGImages/003831.png
../../../datasets/VOCdevkit_train/VOC2006/PNGImages/003840.png
../../../datasets/VOCdevkit_train/VOC2006/PNGImages/003854.png
../../../datasets/VOCdevkit_train/VOC2006/PNGImages/003866.png
../../../datasets/VOCdevkit_train/VOC2006/PNGImages/003870.png
../../../datasets/VOCdevkit_train/VOC2006/PNGImages/003879.png
../../../datasets/VOCdevkit_train/VOC2006/PNGImages/003886.png
../../../datasets/VOCdevkit_train/VOC2006/PNGImages/003903.png
../../../datasets/VOCdevkit_train/VOC2006/PNGImages/003910.png
../../../datasets/VOCdevkit_train/VOC2006/PNGImages/003911.png
../../../datasets/VOCdevkit_train/VOC2006/PNGImages/003926.png
../../../datasets/VOCdevkit_train/VOC2006/PNGImages/003935.png
../../../datasets/VOCdevkit_train/VOC2006/PNGImages/003963.png
../../../datasets/VOCdevkit_train/VOC2006/PNGImages/003984.png
../../../datasets/VOCdevkit_train/VOC2006/PNGImages/003986.png
../../../datasets/VOCdevkit_train/VOC2006/PNGImages/004023.png
../../../datasets/VOCdevkit_train/VOC2006/PNGImages/004027.png
../../../datasets/VOCdevkit_train/VOC2006/PNGImages/004037.png
../../../datasets/VOCdevkit_train/VOC2006/PNGImages/004047.png
../../../datasets/VOCdevkit_train/VOC2006/PNGImages/004055.png
../../../datasets/VOCdevkit_train/VOC2006/PNGImages/004064.png
../../../datasets/VOCdevkit_train/VOC2006/PNGImages/004083.png
../../../datasets/VOCdevkit_train/VOC2006/PNGImages/004120.png
../../../datasets/VOCdevkit_train/VOC2006/PNGImages/004134.png
../../../datasets/VOCdevkit_train/VOC2006/PNGImages/004136.png
../../../datasets/VOCdevkit_train/VOC2006/PNGImages/004146.png
../../../datasets/VOCdevkit_train/VOC2006/PNGImages/004167.png
../../../datasets/VOCdevkit_train/VOC2006/PNGImages/004172.png
../../../datasets/VOCdevkit_train/VOC2006/PNGImages/004173.png
../../../datasets/VOCdevkit_train/VOC2006/PNGImages/004185.png
../../../datasets/VOCdevkit_train/VOC2006/PNGImages/004190.png
../../../datasets/VOCdevkit_train/VOC2006/PNGImages/004205.png
../../../datasets/VOCdevkit_train/VOC2006/PNGImages/004230.png
../../../datasets/VOCdevkit_train/VOC2006/PNGImages/004245.png
../../../datasets/VOCdevkit_train/VOC2006/PNGImages/004256.png
../../../datasets/VOCdevkit_train/VOC2006/PNGImages/004264.png
../../../datasets/VOCdevkit_train/VOC2006/PNGImages/004312.png
../../../datasets/VOCdevkit_train/VOC2006/PNGImages/004321.png
../../../datasets/VOCdevkit_train/VOC2006/PNGImages/004332.png
../../../datasets/VOCdevkit_train/VOC2006/PNGImages/004338.png
../../../datasets/VOCdevkit_train/VOC2006/PNGImages/004364.png
../../../datasets/VOCdevkit_train/VOC2006/PNGImages/004388.png
../../../datasets/VOCdevkit_train/VOC2006/PNGImages/004393.png
../../../datasets/VOCdevkit_train/VOC2006/PNGImages/004410.png
../../../datasets/VOCdevkit_train/VOC2006/PNGImages/004420.png
../../../datasets/VOCdevkit_train/VOC2006/PNGImages/004422.png
../../../datasets/VOCdevkit_train/VOC2006/PNGImages/004441.png
../../../datasets/VOCdevkit_train/VOC2006/PNGImages/004198.png
../../../datasets/VOCdevkit_train/VOC2006/PNGImages/004277.png
../../../datasets/VOCdevkit_train/VOC2006/PNGImages/004453.png
../../../datasets/VOCdevkit_train/VOC2006/PNGImages/004461.png
../../../datasets/VOCdevkit_train/VOC2006/PNGImages/004494.png
../../../datasets/VOCdevkit_train/VOC2006/PNGImages/004498.png
../../../datasets/VOCdevkit_train/VOC2006/PNGImages/004503.png
../../../datasets/VOCdevkit_train/VOC2006/PNGImages/004517.png
../../../datasets/VOCdevkit_train/VOC2006/PNGImages/004519.png
../../../datasets/VOCdevkit_train/VOC2006/PNGImages/004527.png
../../../datasets/VOCdevkit_train/VOC2006/PNGImages/004555.png
../../../datasets/VOCdevkit_train/VOC2006/PNGImages/004586.png
../../../datasets/VOCdevkit_train/VOC2006/PNGImages/004603.png
../../../datasets/VOCdevkit_train/VOC2006/PNGImages/004612.png
../../../datasets/VOCdevkit_train/VOC2006/PNGImages/004645.png
../../../datasets/VOCdevkit_train/VOC2006/PNGImages/004653.png
../../../datasets/VOCdevkit_train/VOC2006/PNGImages/004669.png
../../../datasets/VOCdevkit_train/VOC2006/PNGImages/004677.png
../../../datasets/VOCdevkit_train/VOC2006/PNGImages/004689.png
../../../datasets/VOCdevkit_train/VOC2006/PNGImages/004696.png
../../../datasets/VOCdevkit_train/VOC2006/PNGImages/004719.png
../../../datasets/VOCdevkit_train/VOC2006/PNGImages/004741.png
../../../datasets/VOCdevkit_train/VOC2006/PNGImages/004781.png
../../../datasets/VOCdevkit_train/VOC2006/PNGImages/004792.png
../../../datasets/VOCdevkit_train/VOC2006/PNGImages/004807.png
../../../datasets/VOCdevkit_train/VOC2006/PNGImages/004821.png
../../../datasets/VOCdevkit_train/VOC2006/PNGImages/004847.png
../../../datasets/VOCdevkit_train/VOC2006/PNGImages/004868.png
../../../datasets/VOCdevkit_train/VOC2006/PNGImages/004877.png
../../../datasets/VOCdevkit_train/VOC2006/PNGImages/004898.png
../../../datasets/VOCdevkit_train/VOC2006/PNGImages/004902.png
../../../datasets/VOCdevkit_train/VOC2006/PNGImages/004905.png
../../../datasets/VOCdevkit_train/VOC2006/PNGImages/004907.png
../../../datasets/VOCdevkit_train/VOC2006/PNGImages/004913.png
../../../datasets/VOCdevkit_train/VOC2006/PNGImages/004917.png
../../../datasets/VOCdevkit_train/VOC2006/PNGImages/004933.png
../../../datasets/VOCdevkit_train/VOC2006/PNGImages/004941.png
../../../datasets/VOCdevkit_train/VOC2006/PNGImages/004951.png
../../../datasets/VOCdevkit_train/VOC2006/PNGImages/004963.png
../../../datasets/VOCdevkit_train/VOC2006/PNGImages/004978.png
../../../datasets/VOCdevkit_train/VOC2006/PNGImages/004981.png
../../../datasets/VOCdevkit_train/VOC2006/PNGImages/004999.png
../../../datasets/VOCdevkit_train/VOC2006/PNGImages/005021.png
../../../datasets/VOCdevkit_train/VOC2006/PNGImages/005025.png
../../../datasets/VOCdevkit_train/VOC2006/PNGImages/005040.png
../../../datasets/VOCdevkit_train/VOC2006/PNGImages/005059.png
../../../datasets/VOCdevkit_train/VOC2006/PNGImages/005073.png
../../../datasets/VOCdevkit_train/VOC2006/PNGImages/005104.png
../../../datasets/VOCdevkit_train/VOC2006/PNGImages/005113.png
../../../datasets/VOCdevkit_train/VOC2006/PNGImages/005116.png
../../../datasets/VOCdevkit_train/VOC2006/PNGImages/005153.png
../../../datasets/VOCdevkit_train/VOC2006/PNGImages/004562.png
../../../datasets/VOCdevkit_train/VOC2006/PNGImages/004639.png
../../../datasets/VOCdevkit_train/VOC2006/PNGImages/004761.png
../../../datasets/VOCdevkit_train/VOC2006/PNGImages/005120.png
../../../datasets/VOCdevkit_train/VOC2006/PNGImages/005166.png
../../../datasets/VOCdevkit_train/VOC2006/PNGImages/005172.png
../../../datasets/VOCdevkit_train/VOC2006/PNGImages/005179.png
../../../datasets/VOCdevkit_train/VOC2006/PNGImages/005199.png
../../../datasets/VOCdevkit_train/VOC2006/PNGImages/005206.png
../../../datasets/VOCdevkit_train/VOC2006/PNGImages/005216.png
../../../datasets/VOCdevkit_train/VOC2006/PNGImages/005223.png
../../../datasets/VOCdevkit_train/VOC2006/PNGImages/005234.png
../../../datasets/VOCdevkit_train/VOC2006/PNGImages/005261.png
../../../datasets/VOCdevkit_train/VOC2006/PNGImages/005278.png
../../../datasets/VOCdevkit_train/VOC2006/PNGImages/005281.png
../../../datasets/VOCdevkit_train/VOC2006/PNGImages/005299.png
../../../datasets/VOCdevkit_train/VOC2006/PNGImages/005302.png
